[
  {
    "type": "delete",
    "url": "/books/delete/:id",
    "title": "Eliminar un libro.",
    "name": "DelBook",
    "group": "Books",
    "success": {
      "examples": [
        {
          "title": "Success-Response:",
          "content": "HTTP/1.1 200 OK\n  {\n       \"success\": true,\n       \"content\": \"¡El libro \\\"Confesiones de una Máscara\\\" se ha borrado exitosamente!\"\n   }",
          "type": "json"
        }
      ]
    },
    "version": "0.0.0",
    "filename": "book_api/app/Http/Controllers/api/bookController.php",
    "groupTitle": "Books"
  },
  {
    "type": "get",
    "url": "/books/get/:id?",
    "title": "Obtener libros por ID de autor.",
    "name": "GetBooks",
    "group": "Books",
    "success": {
      "examples": [
        {
          "title": "Success-Response:",
          "content": " HTTP/1.1 200 OK\n{\n    \"success\": true,\n    \"content\": [\n        {\n            \"id\": 8,\n            \"id_author\": 3,\n            \"name\": \"La Montaña Mágica\",\n            \"price\": 35,\n            \"created_at\": \"2021-03-22T09:45:09.000000Z\",\n            \"updated_at\": \"2021-03-22T09:45:09.000000Z\",\n            \"author\": {\n                \"id\": 3,\n                \"name\": \"Zelma Graham\",\n                \"created_at\": \"2021-03-22T09:45:09.000000Z\",\n                \"updated_at\": \"2021-03-22T09:45:09.000000Z\"\n            },\n            \"discount_promotion\": null,\n            \"help_promotion\": null\n        },\n        {\n            \"id\": 9,\n            \"id_author\": 3,\n            \"name\": \"Confesiones de una Máscara\",\n            \"price\": 65,\n            \"created_at\": \"2021-03-22T09:45:09.000000Z\",\n            \"updated_at\": \"2021-03-22T09:45:09.000000Z\",\n            \"author\": {\n                \"id\": 3,\n                \"name\": \"Zelma Graham\",\n                \"created_at\": \"2021-03-22T09:45:09.000000Z\",\n                \"updated_at\": \"2021-03-22T09:45:09.000000Z\"\n            },\n            \"discount_promotion\": null,\n            \"help_promotion\": {\n                \"id\": 2,\n                \"id_book\": 9,\n                \"start_date\": \"2021-03-24\",\n                \"total_quantity\": 300,\n                \"created_at\": \"2021-03-22T09:45:09.000000Z\",\n                \"updated_at\": \"2021-03-22T09:45:09.000000Z\"\n            }\n        }\n    ]\n}",
          "type": "json"
        }
      ]
    },
    "version": "0.0.0",
    "filename": "book_api/app/Http/Controllers/api/bookController.php",
    "groupTitle": "Books"
  },
  {
    "type": "post",
    "url": "/books/record",
    "title": "Registrar un nuevo libro.",
    "name": "PostBookRecord",
    "group": "Books",
    "parameter": {
      "fields": {
        "Parameter": [
          {
            "group": "Parameter",
            "type": "Number",
            "optional": false,
            "field": "id_author",
            "description": "<p>ID del autor del libro.</p>"
          },
          {
            "group": "Parameter",
            "type": "Number",
            "optional": false,
            "field": "name",
            "description": "<p>Nombre del libro.</p>"
          },
          {
            "group": "Parameter",
            "type": "Number",
            "optional": false,
            "field": "price",
            "description": "<p>Costo del libro.</p>"
          }
        ]
      }
    },
    "success": {
      "examples": [
        {
          "title": "Success-Response:",
          "content": "HTTP/1.1 200 OK\n  {\n       \"success\": true,\n       \"message\": \"¡El libro se ha registrado exitosamente!\",\n       \"content\": {\n           \"id_author\": 5,\n           \"name\": \"La divina comedia\",\n           \"price\": 20,\n           \"updated_at\": \"2021-03-22T22:19:41.000000Z\",\n           \"created_at\": \"2021-03-22T22:19:41.000000Z\",\n           \"id\": 58\n       }\n   }",
          "type": "json"
        }
      ]
    },
    "version": "0.0.0",
    "filename": "book_api/app/Http/Controllers/api/bookController.php",
    "groupTitle": "Books"
  },
  {
    "type": "post",
    "url": "/books/buy",
    "title": "Comprar un libro.",
    "name": "PostBuyBook",
    "group": "Books",
    "parameter": {
      "fields": {
        "Parameter": [
          {
            "group": "Parameter",
            "type": "Number",
            "optional": false,
            "field": "id_book",
            "description": "<p>ID del libro.</p>"
          },
          {
            "group": "Parameter",
            "type": "Number",
            "optional": false,
            "field": "id_reader",
            "description": "<p>ID del lector que compra.</p>"
          }
        ]
      }
    },
    "success": {
      "examples": [
        {
          "title": "Success-Response:",
          "content": "HTTP/1.1 200 OK\n  {\n       \"success\": true,\n       \"message\": \"¡El libro se ha comprado exitosamente!\",\n       \"content\": {\n           \"id_book\": 6,\n           \"id_reader\": 1,\n           \"amount\": 35.25,\n           \"updated_at\": \"2021-03-22T22:37:13.000000Z\",\n           \"created_at\": \"2021-03-22T22:37:13.000000Z\",\n           \"id\": 14\n       }\n   }",
          "type": "json"
        }
      ]
    },
    "version": "0.0.0",
    "filename": "book_api/app/Http/Controllers/api/bookController.php",
    "groupTitle": "Books"
  },
  {
    "type": "put",
    "url": "/books/update",
    "title": "Actualizar un libro.",
    "name": "PutBook",
    "group": "Books",
    "parameter": {
      "fields": {
        "Parameter": [
          {
            "group": "Parameter",
            "type": "Number",
            "optional": false,
            "field": "id_book",
            "description": "<p>ID del libro.</p>"
          },
          {
            "group": "Parameter",
            "type": "Number",
            "optional": false,
            "field": "name",
            "description": "<p>Nombre del libro.</p>"
          },
          {
            "group": "Parameter",
            "type": "Number",
            "optional": false,
            "field": "price",
            "description": "<p>Costo del libro.</p>"
          }
        ]
      }
    },
    "success": {
      "examples": [
        {
          "title": "Success-Response:",
          "content": "HTTP/1.1 200 OK\n  {\n       \"success\": true,\n       \"message\": \"¡Los datos del libro se han actualizado exitosamente!\",\n       \"content\": {\n           \"id\": 1,\n           \"id_author\": 1,\n           \"name\": \"La llamada de Cthulhu\",\n           \"price\": \"100.00\",\n           \"created_at\": \"2021-03-22T09:45:09.000000Z\",\n           \"updated_at\": \"2021-03-22T22:23:21.000000Z\"\n       }\n   }",
          "type": "json"
        }
      ]
    },
    "version": "0.0.0",
    "filename": "book_api/app/Http/Controllers/api/bookController.php",
    "groupTitle": "Books"
  },
  {
    "type": "post",
    "url": "/promotions/donate",
    "title": "Donar a una promoción de ayuda",
    "name": "PostDonation",
    "group": "Promotions",
    "parameter": {
      "fields": {
        "Parameter": [
          {
            "group": "Parameter",
            "type": "Number",
            "optional": false,
            "field": "id_help_promotion",
            "description": "<p>ID de la promoción de ayuda.</p>"
          },
          {
            "group": "Parameter",
            "type": "Number",
            "optional": false,
            "field": "id_reader",
            "description": "<p>ID del lector.</p>"
          },
          {
            "group": "Parameter",
            "type": "Number",
            "optional": false,
            "field": "amount",
            "description": "<p>Cantidad a donar.</p>"
          }
        ]
      }
    },
    "success": {
      "examples": [
        {
          "title": "Success-Response:",
          "content": "HTTP/1.1 200 OK\n {\n     \"success\": true,\n     \"message\": \"¡La donación se ha realizado exitosamente!\",\n     \"content\": {\n         \"id_help_promotions\": 1,\n         \"id_transaction\": 12,\n         \"updated_at\": \"2021-03-22T22:05:49.000000Z\",\n         \"created_at\": \"2021-03-22T22:05:49.000000Z\",\n         \"id\": 7\n     }\n }",
          "type": "json"
        }
      ]
    },
    "version": "0.0.0",
    "filename": "book_api/app/Http/Controllers/api/promotionController.php",
    "groupTitle": "Promotions"
  },
  {
    "type": "get",
    "url": "/transactions/get/:id",
    "title": "Descargar .CSV de una transacción.",
    "name": "GetTransaction",
    "group": "Transactions",
    "version": "0.0.0",
    "filename": "book_api/app/Http/Controllers/api/TransactionController.php",
    "groupTitle": "Transactions"
  }
]
